Introducing Zoomerjoin - Beniamino Green
…
To drive the point home, let me show off how easy it is to merge string data
using to use the jaccard_inner_join() function. I want to find matching rows
between two randomly-selected pools of political listed in the Database on
Ideology, Money in Politics, and Elections
(DIME).

Here’s the first ten rows of the first sample

corpus_1

## # A tibble: 500,000 × 2
##     id_1 field                                                                  
##    <dbl> <chr>                                                                  
##  1     1 ufwa cope committee                                                    
##  2     2 committee to re elect charles e. bennett                               
##  3     3 montana democratic party non federal account                           
##  4     4 mississippi power & light company management political action and educ…
##  5     5 napus pac for postmasters                                              
##  6     6 aminoil good government fund                                           
##  7     7 national women's political caucus of california                        
##  8     8 minnesota gun owners' political victory fund                           
##  9     9 metropolitan detroit afl cio cope committee                            
## 10    10 carpenters legislative improvement committee united brotherhood of car…
## # ℹ 499,990 more rows

And the first ten rows of the second sample:

corpus_2

## # A tibble: 500,000 × 2
##      id_2 field                               
##     <dbl> <chr>                               
##  1 832471 avrp studios inc                    
##  2 832472 avrd design                         
##  3 832473 avenales cattle co                  
##  4 832474 auto dealers of michigan political a
##  5 832475 atty & counselor at law             
##  6 832476 at&t united way                     
##  7 832477 ashland food & liquors              
##  8 832478 arvance turkey ranch inc            
##  9 832479 arizona federation of teachers      
## 10 832480 arianas restaurant                  
## # ℹ 499,990 more rows
…
start_time <- Sys.time()
join_out <- jaccard_inner_join(corpus_1, corpus_2,
                               by = "field",
                               threshold = .9, n_gram_width=6,
                               n_bands=40, band_width=6)
print(Sys.time() - start_time)

## Time difference of 16.34204 secs

select(join_out, field.x, field.y) %>%
    mutate_all(~substr(.x,1,30))

## # A tibble: 7,803 × 2
##    field.x                          field.y                         
##    <chr>                            <chr>                           
##  1 "curl & stahl pc"                "curl & stahl pc,"              
##  2 "friends of kevin mccarthy for " "friends of kevin mccarthy for "
##  3 "electrical workers local 545"   "electrical workers local 543"  
##  4 "meredith donnell & abernethy p" "meredith donnell & abernethy p"
##  5 "lloyd gosselink blevins rochel" "lloyd gosselink blevins rochel"
##  6 "strasburger & price l.l.p."     "strasburger & price l.l.p"     
##  7 "union oil political awareness " "union oil political awareness "
##  8 "associated plumbing heating co" "associated plumbing heating co"
##  9 "the holman law firm p.c."       "the holman law firm p.c.,"     
## 10 "strategic land management cons" "strategic land management cons"
## # ℹ 7,793 more rows
…
