Introducing Zoomerjoin - Beniamino Green
…
Here’s an example showing how to merge two datasets using the
jaccard_inner_join function. I use as test datasets two random subsets
political donors listed in the Database on Ideology, Money in Politics, and
Elections (DIME) (the same test set from
benchmark from this paper).

To give you a sense of the data, here’s the first ten rows of the first sample:

corpus_1 <- dime_data %>% # dime data is packaged with zoomerjoin
    head(5*10^5)
names(corpus_1) <- c("a", "field")
corpus_1

## # A tibble: 500,000 × 2
##        a field                                                                  
##    <dbl> <chr>                                                                  
##  1     1 ufwa cope committee                                                    
##  2     2 committee to re elect charles e. bennett                               
##  3     3 montana democratic party non federal account                           
##  4     4 mississippi power & light company management political action and educ…
##  5     5 napus pac for postmasters                                              
##  6     6 aminoil good government fund                                           
##  7     7 national women's political caucus of california                        
##  8     8 minnesota gun owners' political victory fund                           
##  9     9 metropolitan detroit afl cio cope committee                            
## 10    10 carpenters legislative improvement committee united brotherhood of car…
## # ℹ 499,990 more rows

And the first ten rows of the second sample:

corpus_2 <- dime_data %>% # dime data is packaged with zoomerjoin
    tail(5*10^5)
names(corpus_2) <- c("b", "field")
corpus_2

## # A tibble: 500,000 × 2
##         b field                               
##     <dbl> <chr>                               
##  1 832471 avrp studios inc                    
##  2 832472 avrd design                         
##  3 832473 avenales cattle co                  
##  4 832474 auto dealers of michigan political a
##  5 832475 atty & counselor at law             
##  6 832476 at&t united way                     
##  7 832477 ashland food & liquors              
##  8 832478 arvance turkey ranch inc            
##  9 832479 arizona federation of teachers      
## 10 832480 arianas restaurant                  
## # ℹ 499,990 more rows
…
start_time <- Sys.time()
join_out <- jaccard_inner_join(corpus_1, corpus_2,
                               by = "field",
                               threshold = .9, n_gram_width=6,
                               n_bands=40, band_width=6)
print(Sys.time() - start_time)

## Time difference of 10.23653 secs

select(join_out, field.x, field.y) %>%
    mutate_all(~substr(.x,1,30))

## # A tibble: 7,803 × 2
##    field.x                          field.y                         
##    <chr>                            <chr>                           
##  1 "operating engineers local no 3" "operating engineeers local no "
##  2 "goode casseb jones riklin choa" "goode casseb jones riklin choa"
##  3 "texas farm bureau,"             "texas farm bureau"             
##  4 "liuna local 1309"               "liuna local 130"               
##  5 "friends of steve fryar"         "friends of steve fryar,"       
##  6 "53b house district republican " "55b house district republican "
##  7 "4th district democratic centra" "26th district democratic centr"
##  8 "the holman law firm p.c."       "the holman law firm p.c.,"     
##  9 "teamsters local 813"            "teamsters local 81"            
## 10 "hotel employees & restaurant e" "hotel employees & restaurant e"
## # ℹ 7,793 more rows
…
